

  <"*full contents*" -- $/index.html>

* /5/ Starting Your Own Branch

  <"/5.1/ Create an Archive" -- $/hacking/my-archive.html>

  <"/5.2/ Create Branches" -- $/hacking/my-branch.html>

  <"/5.3/ Your `config' File" -- $/hacking/my-config.html>

  <"/5.4/ Examining Your Changes" -- $/hacking/changes.html>

  <"/5.5/ Committing Your Changes" -- $/hacking/changes.html>

  <"/5.6/ Merging in Changes from Upstream" -- $/hacking/merge-from-upstream.html>

  <"/5.7/ Publish Your Archive -- an Outbound Mirror" -- $/hacking/branch-publishing.html>


[[null
  ; arch-tag: Tom Lord Mon Mar 28 10:55:48 2005 (hacking/top-nav.txt)
]]
